Formation Analyse données R (part 2)
…
td %>% leaflet() %>% addProviderTiles(providers$CartoDB.Positron) %>% 
  setView(mean(td$LONG_IDENTIF,na.rm=T),mean(td$LAT_IDENTIF,na.rm=T),zoom = 5) %>% 
  addCircles(lat= ~LAT_IDENTIF,lng= ~LONG_IDENTIF,radius=20,
                 stroke=T,
                 fillOpacity = 0.7)

Données spatiales

cd = td %>% 
  filter(ESPECE %in% abundant$ESPECE)  %>%  
  filter(date %within%interval(dmy("1/1/2009"),dmy("31/12/2013"))) %>% 
  group_by(ID_SITE,ESPECE,LONG_IDENTIF,LAT_IDENTIF,) %>% summarize(capture = mean(NBINDIV))
cd

## # A tibble: 237 x 5
## # Groups:   ID_SITE, ESPECE, LONG_IDENTIF [237]
##    ID_SITE ESPECE             LONG_IDENTIF LAT_IDENTIF capture
##    <fct>   <fct>                     <dbl>       <dbl>   <dbl>
##  1 01PL1   obsoletus/scoticus         5.79        46.1   291. 
##  2 01PL2   obsoletus/scoticus         5.05        46.0   259. 
##  3 01PL3   obsoletus/scoticus         5.1         46.1   197. 
##  4 01PL4   obsoletus/scoticus         5.56        46.2  1006. 
##  5 01PL5   obsoletus/scoticus         5.17        46.1    53.7
##  6 02PL2   obsoletus/scoticus         3.46        49.5    58.6
##  7 02PL3   obsoletus/scoticus         3.88        49.8    12.6
##  8 02PL4   obsoletus/scoticus         3.67        49.6    41  
##  9 02PL5   obsoletus/scoticus         3.28        49.7   665  
## 10 03PL1   obsoletus/scoticus         3.28        46.5   200. 
## # … with 227 more rows
…
